<?xml version="1.0" encoding="UTF-8" standalone="no"?>
<!-- Created with Inkscape (http://www.inkscape.org/) -->

<svg
   version="1.1"
   id="svg2"
   xml:space="preserve"
   width="2794.6667"
   height="2666.6667"
   viewBox="0 0 2794.6667 2666.6667"
   sodipodi:docname="mdmlogo.svg"
   inkscape:version="1.1.1 (3bf5ae0d25, 2021-09-20)"
   inkscape:export-filename="/home/stephan/Git/mind-drip-media-docs/docs/assets/mdmlogo.png"
   inkscape:export-xdpi="40.5"
   inkscape:export-ydpi="40.5"
   xmlns:inkscape="http://www.inkscape.org/namespaces/inkscape"
   xmlns:sodipodi="http://sodipodi.sourceforge.net/DTD/sodipodi-0.dtd"
   xmlns="http://www.w3.org/2000/svg"
   xmlns:svg="http://www.w3.org/2000/svg"
   xmlns:rdf="http://www.w3.org/1999/02/22-rdf-syntax-ns#"
   xmlns:cc="http://creativecommons.org/ns#"
   xmlns:dc="http://purl.org/dc/elements/1.1/"><metadata
     id="metadata8"><rdf:RDF><cc:Work
         rdf:about=""><dc:format>image/svg+xml</dc:format><dc:type
           rdf:resource="http://purl.org/dc/dcmitype/StillImage" /></cc:Work></rdf:RDF></metadata><defs
     id="defs6"><clipPath
       clipPathUnits="userSpaceOnUse"
       id="clipPath30"><path
         d="M 0,2000 H 2000 V 0 H 0 Z"
         id="path28"
         inkscape:connector-curvature="0" /></clipPath></defs><sodipodi:namedview
     pagecolor="#ffffff"
     bordercolor="#666666"
     borderopacity="1"
     objecttolerance="10"
     gridtolerance="10"
     guidetolerance="10"
     inkscape:pageopacity="0"
     inkscape:pageshadow="2"
     inkscape:window-width="1920"
     inkscape:window-height="1006"
     id="namedview4"
     showgrid="false"
     inkscape:zoom="0.25031579"
     inkscape:cx="1320.3322"
     inkscape:cy="1140.5593"
     inkscape:window-x="0"
     inkscape:window-y="0"
     inkscape:window-maximized="1"
     inkscape:current-layer="g10"
     inkscape:pagecheckerboard="0"
     width="2668.6667px" /><g
     id="g10"
     inkscape:groupmode="layer"
     inkscape:label="A0050214_orderMock_25011617_2"
     transform="matrix(1.3333333,0,0,-1.3333333,0,2666.6667)"><g
       id="g68"
       transform="matrix(2.0265916,0,0,2.0265916,1907.3818,687.13395)"
       style="fill:#0000ff;fill-opacity:1"
       inkscape:export-filename="/home/stephan/Git/mind-drip-media-docs/docs/assets/mdmlogo.png"
       inkscape:export-xdpi="40.5"
       inkscape:export-ydpi="40.5"><path
         d="m 0,0 c 0,-23.69 -17.627,-35.011 -39.171,-25.156 l -181.28,82.926 c -21.544,9.855 -39.171,37.303 -39.171,60.994 v 45.042 c 0,23.691 17.627,51.138 39.171,60.993 l 181.28,82.927 C -17.627,317.581 0,306.261 0,282.569 Z m 55.238,368.19 c 0,23.691 -17.617,34.989 -39.148,25.107 L -185.099,300.96 c -21.532,-9.882 -51.947,-31.067 -67.589,-47.079 -15.642,-16.012 -62.172,-77.173 -62.172,-100.864 V 82.858 c 0,-23.691 3.266,-44.574 7.258,-46.406 3.993,-1.832 24.876,-11.417 46.408,-21.299 L 16.09,-112.108 c 21.531,-9.882 39.148,1.416 39.148,25.107 z"
         style="fill:#0000ff;fill-opacity:1;fill-rule:nonzero;stroke:none"
         id="path70"
         inkscape:connector-curvature="0" /></g><g
       id="g72"
       transform="matrix(2.0265916,0,0,2.0265916,1070.7757,1676.9764)"
       style="fill:#0000ff;fill-opacity:1"
       inkscape:export-filename="/home/stephan/Git/mind-drip-media-docs/docs/assets/mdmlogo.png"
       inkscape:export-xdpi="40.5"
       inkscape:export-ydpi="40.5"><path
         d="m 0,0 c 90.933,20.673 158.701,14.308 182.181,-24.078 47.651,-77.902 -105.077,-258.103 -341.127,-402.488 -87.052,-53.248 -173.267,-94.171 -249.829,-120.732 93.609,21.281 211.767,71.217 331.504,144.457 C 158.777,-258.455 311.506,-78.254 263.854,-0.353 233.777,48.82 131.04,45.462 0,0"
         style="fill:#0000ff;fill-opacity:1;fill-rule:nonzero;stroke:none"
         id="path74"
         inkscape:connector-curvature="0" /></g><g
       id="g76"
       transform="matrix(2.0265916,0,0,2.0265916,1297.4687,1083.1326)"><path
         d="m 0,0 c -18.384,-15.629 -37.633,-31.074 -57.582,-46.178 v -142.54 c 0,-10.024 3.492,-18.546 10.513,-25.547 7.001,-7.021 15.522,-10.511 25.527,-10.511 10.024,0 18.527,3.49 25.548,10.511 7.001,7.001 10.512,15.523 10.512,25.547 v 25.747 L 0,-156.309 Z"
         style="fill:#ffffff;fill-opacity:1;fill-rule:nonzero;stroke:none"
         id="path78"
         inkscape:connector-curvature="0" /></g><g
       id="g80"
       transform="matrix(2.0265916,0,0,2.0265916,1269.2884,1289.6115)"><path
         d="m 0,0 c -2.444,0.493 -4.979,0.777 -7.637,0.777 -8.503,0 -17.025,-3.51 -25.527,-10.512 -32.549,-28.531 -60.457,-50.822 -83.742,-66.832 -23.266,-16.032 -44.308,-28.045 -63.07,-36.06 -18.78,-8.016 -36.566,-12.891 -53.318,-14.646 -16.791,-1.755 -34.928,-2.632 -54.449,-2.632 -19.542,0 -37.815,1.013 -54.82,3.022 -17.045,1.989 -35.183,7.001 -54.45,15.016 -19.288,7.996 -40.564,20.01 -63.85,36.04 -23.265,16.011 -50.938,38.049 -82.981,66.092 -4.017,3.004 -8.015,5.5 -12.013,7.509 -4.017,1.989 -8.522,3.003 -13.514,3.003 -10.025,0 -18.527,-3.51 -25.528,-10.512 -7.021,-7.02 -10.532,-15.523 -10.532,-25.528 v -255.34 c 0,-10.024 3.511,-18.545 10.532,-25.546 7.001,-7.022 15.503,-10.512 25.528,-10.512 10.004,0 18.507,3.49 25.527,10.512 7.001,7.001 10.512,15.522 10.512,25.546 v 177.976 c 22.544,-18.02 43.938,-33.036 64.22,-45.049 20.282,-12.034 40.291,-21.668 60.086,-28.922 19.755,-7.255 39.53,-12.384 59.325,-15.387 19.775,-3.003 40.427,-4.506 61.958,-4.506 13.54,0 26.937,0.946 40.263,2.321 C -138.709,-135.291 -54.542,-62.948 0,0"
         style="fill:#ffffff;fill-opacity:1;fill-rule:nonzero;stroke:none"
         id="path82"
         inkscape:connector-curvature="0" /></g></g></svg>
